-target:library
-out:"Library/Bee/artifacts/1900b0aP.dag/Unity.RenderPipelines.Core.Runtime.dll"
-refout:"Library/Bee/artifacts/1900b0aP.dag/Unity.RenderPipelines.Core.Runtime.ref.dll"
-define:UNITY_2021_3_2
-define:UNITY_2021_3
-define:UNITY_2021
-define:UNITY_5_3_OR_NEWER
-define:UNITY_5_4_OR_NEWER
-define:UNITY_5_5_OR_NEWER
-define:UNITY_5_6_OR_NEWER
-define:UNITY_2017_1_OR_NEWER
-define:UNITY_2017_2_OR_NEWER
-define:UNITY_2017_3_OR_NEWER
-define:UNITY_2017_4_OR_NEWER
-define:UNITY_2018_1_OR_NEWER
-define:UNITY_2018_2_OR_NEWER
-define:UNITY_2018_3_OR_NEWER
-define:UNITY_2018_4_OR_NEWER
-define:UNITY_2019_1_OR_NEWER
-define:UNITY_2019_2_OR_NEWER
-define:UNITY_2019_3_OR_NEWER
-define:UNITY_2019_4_OR_NEWER
-define:UNITY_2020_1_OR_NEWER
-define:UNITY_2020_2_OR_NEWER
-define:UNITY_2020_3_OR_NEWER
-define:UNITY_2021_1_OR_NEWER
-define:UNITY_2021_2_OR_NEWER
-define:UNITY_2021_3_OR_NEWER
-define:PLATFORM_ARCH_64
-define:UNITY_64
-define:USE_SEARCH_ENGINE_API
-define:USE_SEARCH_TABLE
-define:USE_SEARCH_MODULE
-define:USE_PROPERTY_DATABASE
-define:USE_SEARCH_EXTENSION_API
-define:SCENE_TEMPLATE_MODULE
-define:ENABLE_AR
-define:ENABLE_AUDIO
-define:ENABLE_CACHING
-define:ENABLE_CLOTH
-define:ENABLE_EVENT_QUEUE
-define:ENABLE_MICROPHONE
-define:ENABLE_MULTIPLE_DISPLAYS
-define:ENABLE_PHYSICS
-define:ENABLE_TEXTURE_STREAMING
-define:ENABLE_VIRTUALTEXTURING
-define:ENABLE_UNET
-define:ENABLE_LZMA
-define:ENABLE_UNITYEVENTS
-define:ENABLE_VR
-define:ENABLE_WEBCAM
-define:ENABLE_UNITYWEBREQUEST
-define:ENABLE_WWW
-define:ENABLE_CLOUD_SERVICES
-define:ENABLE_CLOUD_SERVICES_COLLAB
-define:ENABLE_CLOUD_SERVICES_COLLAB_SOFTLOCKS
-define:ENABLE_CLOUD_SERVICES_ADS
-define:ENABLE_CLOUD_SERVICES_USE_WEBREQUEST
-define:ENABLE_CLOUD_SERVICES_CRASH_REPORTING
-define:ENABLE_CLOUD_SERVICES_PURCHASING
-define:ENABLE_CLOUD_SERVICES_ANALYTICS
-define:ENABLE_CLOUD_SERVICES_UNET
-define:ENABLE_CLOUD_SERVICES_BUILD
-define:ENABLE_CLOUD_LICENSE
-define:ENABLE_EDITOR_HUB_LICENSE
-define:ENABLE_WEBSOCKET_CLIENT
-define:ENABLE_DIRECTOR_AUDIO
-define:ENABLE_DIRECTOR_TEXTURE
-define:ENABLE_MANAGED_JOBS
-define:ENABLE_MANAGED_TRANSFORM_JOBS
-define:ENABLE_MANAGED_ANIMATION_JOBS
-define:ENABLE_MANAGED_AUDIO_JOBS
-define:ENABLE_MANAGED_UNITYTLS
-define:INCLUDE_DYNAMIC_GI
-define:ENABLE_SCRIPTING_GC_WBARRIERS
-define:PLATFORM_SUPPORTS_MONO
-define:RENDER_SOFTWARE_CURSOR
-define:ENABLE_VIDEO
-define:ENABLE_ACCELERATOR_CLIENT_DEBUGGING
-define:PLATFORM_STANDALONE
-define:TEXTCORE_1_0_OR_NEWER
-define:PLATFORM_STANDALONE_WIN
-define:UNITY_STANDALONE_WIN
-define:UNITY_STANDALONE
-define:ENABLE_RUNTIME_GI
-define:ENABLE_MOVIES
-define:ENABLE_NETWORK
-define:ENABLE_NVIDIA
-define:ENABLE_CRUNCH_TEXTURE_COMPRESSION
-define:ENABLE_OUT_OF_PROCESS_CRASH_HANDLER
-define:ENABLE_CLUSTER_SYNC
-define:ENABLE_CLUSTERINPUT
-define:PLATFORM_UPDATES_TIME_OUTSIDE_OF_PLAYER_LOOP
-define:GFXDEVICE_WAITFOREVENT_MESSAGEPUMP
-define:ENABLE_WEBSOCKET_HOST
-define:ENABLE_MONO
-define:NET_STANDARD_2_0
-define:NET_STANDARD
-define:ENABLE_CUSTOM_RENDER_TEXTURE
-define:ENABLE_DIRECTOR
-define:ENABLE_LOCALIZATION
-define:ENABLE_SPRITES
-define:ENABLE_TERRAIN
-define:ENABLE_TILEMAP
-define:ENABLE_TIMELINE
-define:ENABLE_INPUT_SYSTEM
-define:ENABLE_VR_MODULE
-define:ENABLE_XR_MODULE
-define:ENABLE_INPUT_SYSTEM_PACKAGE
-define:CSHARP_7_OR_LATER
-define:CSHARP_7_3_OR_NEWER
-r:"C:/Program Files/Unity/Hub/Editor/2021.3.2f1/Editor/Data/NetStandard/compat/2.1.0/shims/netfx/mscorlib.dll"
-r:"C:/Program Files/Unity/Hub/Editor/2021.3.2f1/Editor/Data/NetStandard/compat/2.1.0/shims/netfx/System.ComponentModel.Composition.dll"
-r:"C:/Program Files/Unity/Hub/Editor/2021.3.2f1/Editor/Data/NetStandard/compat/2.1.0/shims/netfx/System.Core.dll"
-r:"C:/Program Files/Unity/Hub/Editor/2021.3.2f1/Editor/Data/NetStandard/compat/2.1.0/shims/netfx/System.Data.dll"
-r:"C:/Program Files/Unity/Hub/Editor/2021.3.2f1/Editor/Data/NetStandard/compat/2.1.0/shims/netfx/System.dll"
-r:"C:/Program Files/Unity/Hub/Editor/2021.3.2f1/Editor/Data/NetStandard/compat/2.1.0/shims/netfx/System.Drawing.dll"
-r:"C:/Program Files/Unity/Hub/Editor/2021.3.2f1/Editor/Data/NetStandard/compat/2.1.0/shims/netfx/System.IO.Compression.FileSystem.dll"
-r:"C:/Program Files/Unity/Hub/Editor/2021.3.2f1/Editor/Data/NetStandard/compat/2.1.0/shims/netfx/System.Net.dll"
-r:"C:/Program Files/Unity/Hub/Editor/2021.3.2f1/Editor/Data/NetStandard/compat/2.1.0/shims/netfx/System.Numerics.dll"
-r:"C:/Program Files/Unity/Hub/Editor/2021.3.2f1/Editor/Data/NetStandard/compat/2.1.0/shims/netfx/System.Runtime.Serialization.dll"
-r:"C:/Program Files/Unity/Hub/Editor/2021.3.2f1/Editor/Data/NetStandard/compat/2.1.0/shims/netfx/System.ServiceModel.Web.dll"
-r:"C:/Program Files/Unity/Hub/Editor/2021.3.2f1/Editor/Data/NetStandard/compat/2.1.0/shims/netfx/System.Transactions.dll"
-r:"C:/Program Files/Unity/Hub/Editor/2021.3.2f1/Editor/Data/NetStandard/compat/2.1.0/shims/netfx/System.Web.dll"
-r:"C:/Program Files/Unity/Hub/Editor/2021.3.2f1/Editor/Data/NetStandard/compat/2.1.0/shims/netfx/System.Windows.dll"
-r:"C:/Program Files/Unity/Hub/Editor/2021.3.2f1/Editor/Data/NetStandard/compat/2.1.0/shims/netfx/System.Xml.dll"
-r:"C:/Program Files/Unity/Hub/Editor/2021.3.2f1/Editor/Data/NetStandard/compat/2.1.0/shims/netfx/System.Xml.Linq.dll"
-r:"C:/Program Files/Unity/Hub/Editor/2021.3.2f1/Editor/Data/NetStandard/compat/2.1.0/shims/netfx/System.Xml.Serialization.dll"
-r:"C:/Program Files/Unity/Hub/Editor/2021.3.2f1/Editor/Data/NetStandard/compat/2.1.0/shims/netstandard/Microsoft.Win32.Primitives.dll"
-r:"C:/Program Files/Unity/Hub/Editor/2021.3.2f1/Editor/Data/NetStandard/compat/2.1.0/shims/netstandard/System.AppContext.dll"
-r:"C:/Program Files/Unity/Hub/Editor/2021.3.2f1/Editor/Data/NetStandard/compat/2.1.0/shims/netstandard/System.Buffers.dll"
-r:"C:/Program Files/Unity/Hub/Editor/2021.3.2f1/Editor/Data/NetStandard/compat/2.1.0/shims/netstandard/System.Collections.Concurrent.dll"
-r:"C:/Program Files/Unity/Hub/Editor/2021.3.2f1/Editor/Data/NetStandard/compat/2.1.0/shims/netstandard/System.Collections.dll"
-r:"C:/Program Files/Unity/Hub/Editor/2021.3.2f1/Editor/Data/NetStandard/compat/2.1.0/shims/netstandard/System.Collections.NonGeneric.dll"
-r:"C:/Program Files/Unity/Hub/Editor/2021.3.2f1/Editor/Data/NetStandard/compat/2.1.0/shims/netstandard/System.Collections.Specialized.dll"
-r:"C:/Program Files/Unity/Hub/Editor/2021.3.2f1/Editor/Data/NetStandard/compat/2.1.0/shims/netstandard/System.ComponentModel.dll"
-r:"C:/Program Files/Unity/Hub/Editor/2021.3.2f1/Editor/Data/NetStandard/compat/2.1.0/shims/netstandard/System.ComponentModel.EventBasedAsync.dll"
-r:"C:/Program Files/Unity/Hub/Editor/2021.3.2f1/Editor/Data/NetStandard/compat/2.1.0/shims/netstandard/System.ComponentModel.Primitives.dll"
-r:"C:/Program Files/Unity/Hub/Editor/2021.3.2f1/Editor/Data/NetStandard/compat/2.1.0/shims/netstandard/System.ComponentModel.TypeConverter.dll"
-r:"C:/Program Files/Unity/Hub/Editor/2021.3.2f1/Editor/Data/NetStandard/compat/2.1.0/shims/netstandard/System.Console.dll"
-r:"C:/Program Files/Unity/Hub/Editor/2021.3.2f1/Editor/Data/NetStandard/compat/2.1.0/shims/netstandard/System.Data.Common.dll"
-r:"C:/Program Files/Unity/Hub/Editor/2021.3.2f1/Editor/Data/NetStandard/compat/2.1.0/shims/netstandard/System.Diagnostics.Contracts.dll"
-r:"C:/Program Files/Unity/Hub/Editor/2021.3.2f1/Editor/Data/NetStandard/compat/2.1.0/shims/netstandard/System.Diagnostics.Debug.dll"
-r:"C:/Program Files/Unity/Hub/Editor/2021.3.2f1/Editor/Data/NetStandard/compat/2.1.0/shims/netstandard/System.Diagnostics.FileVersionInfo.dll"
-r:"C:/Program Files/Unity/Hub/Editor/2021.3.2f1/Editor/Data/NetStandard/compat/2.1.0/shims/netstandard/System.Diagnostics.Process.dll"
-r:"C:/Program Files/Unity/Hub/Editor/2021.3.2f1/Editor/Data/NetStandard/compat/2.1.0/shims/netstandard/System.Diagnostics.StackTrace.dll"
-r:"C:/Program Files/Unity/Hub/Editor/2021.3.2f1/Editor/Data/NetStandard/compat/2.1.0/shims/netstandard/System.Diagnostics.TextWriterTraceListener.dll"
-r:"C:/Program Files/Unity/Hub/Editor/2021.3.2f1/Editor/Data/NetStandard/compat/2.1.0/shims/netstandard/System.Diagnostics.Tools.dll"
-r:"C:/Program Files/Unity/Hub/Editor/2021.3.2f1/Editor/Data/NetStandard/compat/2.1.0/shims/netstandard/System.Diagnostics.TraceSource.dll"
-r:"C:/Program Files/Unity/Hub/Editor/2021.3.2f1/Editor/Data/NetStandard/compat/2.1.0/shims/netstandard/System.Diagnostics.Tracing.dll"
-r:"C:/Program Files/Unity/Hub/Editor/2021.3.2f1/Editor/Data/NetStandard/compat/2.1.0/shims/netstandard/System.Drawing.Primitives.dll"
-r:"C:/Program Files/Unity/Hub/Editor/2021.3.2f1/Editor/Data/NetStandard/compat/2.1.0/shims/netstandard/System.Dynamic.Runtime.dll"
-r:"C:/Program Files/Unity/Hub/Editor/2021.3.2f1/Editor/Data/NetStandard/compat/2.1.0/shims/netstandard/System.Globalization.Calendars.dll"
-r:"C:/Program Files/Unity/Hub/Editor/2021.3.2f1/Editor/Data/NetStandard/compat/2.1.0/shims/netstandard/System.Globalization.dll"
-r:"C:/Program Files/Unity/Hub/Editor/2021.3.2f1/Editor/Data/NetStandard/compat/2.1.0/shims/netstandard/System.Globalization.Extensions.dll"
-r:"C:/Program Files/Unity/Hub/Editor/2021.3.2f1/Editor/Data/NetStandard/compat/2.1.0/shims/netstandard/System.IO.Compression.dll"
-r:"C:/Program Files/Unity/Hub/Editor/2021.3.2f1/Editor/Data/NetStandard/compat/2.1.0/shims/netstandard/System.IO.Compression.ZipFile.dll"
-r:"C:/Program Files/Unity/Hub/Editor/2021.3.2f1/Editor/Data/NetStandard/compat/2.1.0/shims/netstandard/System.IO.dll"
-r:"C:/Program Files/Unity/Hub/Editor/2021.3.2f1/Editor/Data/NetStandard/compat/2.1.0/shims/netstandard/System.IO.FileSystem.dll"
-r:"C:/Program Files/Unity/Hub/Editor/2021.3.2f1/Editor/Data/NetStandard/compat/2.1.0/shims/netstandard/System.IO.FileSystem.DriveInfo.dll"
-r:"C:/Program Files/Unity/Hub/Editor/2021.3.2f1/Editor/Data/NetStandard/compat/2.1.0/shims/netstandard/System.IO.FileSystem.Primitives.dll"
-r:"C:/Program Files/Unity/Hub/Editor/2021.3.2f1/Editor/Data/NetStandard/compat/2.1.0/shims/netstandard/System.IO.FileSystem.Watcher.dll"
-r:"C:/Program Files/Unity/Hub/Editor/2021.3.2f1/Editor/Data/NetStandard/compat/2.1.0/shims/netstandard/System.IO.IsolatedStorage.dll"
-r:"C:/Program Files/Unity/Hub/Editor/2021.3.2f1/Editor/Data/NetStandard/compat/2.1.0/shims/netstandard/System.IO.MemoryMappedFiles.dll"
-r:"C:/Program Files/Unity/Hub/Editor/2021.3.2f1/Editor/Data/NetStandard/compat/2.1.0/shims/netstandard/System.IO.Pipes.dll"
-r:"C:/Program Files/Unity/Hub/Editor/2021.3.2f1/Editor/Data/NetStandard/compat/2.1.0/shims/netstandard/System.IO.UnmanagedMemoryStream.dll"
-r:"C:/Program Files/Unity/Hub/Editor/2021.3.2f1/Editor/Data/NetStandard/compat/2.1.0/shims/netstandard/System.Linq.dll"
-r:"C:/Program Files/Unity/Hub/Editor/2021.3.2f1/Editor/Data/NetStandard/compat/2.1.0/shims/netstandard/System.Linq.Expressions.dll"
-r:"C:/Program Files/Unity/Hub/Editor/2021.3.2f1/Editor/Data/NetStandard/compat/2.1.0/shims/netstandard/System.Linq.Parallel.dll"
-r:"C:/Program Files/Unity/Hub/Editor/2021.3.2f1/Editor/Data/NetStandard/compat/2.1.0/shims/netstandard/System.Linq.Queryable.dll"
-r:"C:/Program Files/Unity/Hub/Editor/2021.3.2f1/Editor/Data/NetStandard/compat/2.1.0/shims/netstandard/System.Memory.dll"
-r:"C:/Program Files/Unity/Hub/Editor/2021.3.2f1/Editor/Data/NetStandard/compat/2.1.0/shims/netstandard/System.Net.Http.dll"
-r:"C:/Program Files/Unity/Hub/Editor/2021.3.2f1/Editor/Data/NetStandard/compat/2.1.0/shims/netstandard/System.Net.NameResolution.dll"
-r:"C:/Program Files/Unity/Hub/Editor/2021.3.2f1/Editor/Data/NetStandard/compat/2.1.0/shims/netstandard/System.Net.NetworkInformation.dll"
-r:"C:/Program Files/Unity/Hub/Editor/2021.3.2f1/Editor/Data/NetStandard/compat/2.1.0/shims/netstandard/System.Net.Ping.dll"
-r:"C:/Program Files/Unity/Hub/Editor/2021.3.2f1/Editor/Data/NetStandard/compat/2.1.0/shims/netstandard/System.Net.Primitives.dll"
-r:"C:/Program Files/Unity/Hub/Editor/2021.3.2f1/Editor/Data/NetStandard/compat/2.1.0/shims/netstandard/System.Net.Requests.dll"
-r:"C:/Program Files/Unity/Hub/Editor/2021.3.2f1/Editor/Data/NetStandard/compat/2.1.0/shims/netstandard/System.Net.Security.dll"
-r:"C:/Program Files/Unity/Hub/Editor/2021.3.2f1/Editor/Data/NetStandard/compat/2.1.0/shims/netstandard/System.Net.Sockets.dll"
-r:"C:/Program Files/Unity/Hub/Editor/2021.3.2f1/Editor/Data/NetStandard/compat/2.1.0/shims/netstandard/System.Net.WebHeaderCollection.dll"
-r:"C:/Program Files/Unity/Hub/Editor/2021.3.2f1/Editor/Data/NetStandard/compat/2.1.0/shims/netstandard/System.Net.WebSockets.Client.dll"
-r:"C:/Program Files/Unity/Hub/Editor/2021.3.2f1/Editor/Data/NetStandard/compat/2.1.0/shims/netstandard/System.Net.WebSockets.dll"
-r:"C:/Program Files/Unity/Hub/Editor/2021.3.2f1/Editor/Data/NetStandard/compat/2.1.0/shims/netstandard/System.Numerics.Vectors.dll"
-r:"C:/Program Files/Unity/Hub/Editor/2021.3.2f1/Editor/Data/NetStandard/compat/2.1.0/shims/netstandard/System.ObjectModel.dll"
-r:"C:/Program Files/Unity/Hub/Editor/2021.3.2f1/Editor/Data/NetStandard/compat/2.1.0/shims/netstandard/System.Reflection.DispatchProxy.dll"
-r:"C:/Program Files/Unity/Hub/Editor/2021.3.2f1/Editor/Data/NetStandard/compat/2.1.0/shims/netstandard/System.Reflection.dll"
-r:"C:/Program Files/Unity/Hub/Editor/2021.3.2f1/Editor/Data/NetStandard/compat/2.1.0/shims/netstandard/System.Reflection.Emit.dll"
-r:"C:/Program Files/Unity/Hub/Editor/2021.3.2f1/Editor/Data/NetStandard/compat/2.1.0/shims/netstandard/System.Reflection.Emit.ILGeneration.dll"
-r:"C:/Program Files/Unity/Hub/Editor/2021.3.2f1/Editor/Data/NetStandard/compat/2.1.0/shims/netstandard/System.Reflection.Emit.Lightweight.dll"
-r:"C:/Program Files/Unity/Hub/Editor/2021.3.2f1/Editor/Data/NetStandard/compat/2.1.0/shims/netstandard/System.Reflection.Extensions.dll"
-r:"C:/Program Files/Unity/Hub/Editor/2021.3.2f1/Editor/Data/NetStandard/compat/2.1.0/shims/netstandard/System.Reflection.Primitives.dll"
-r:"C:/Program Files/Unity/Hub/Editor/2021.3.2f1/Editor/Data/NetStandard/compat/2.1.0/shims/netstandard/System.Resources.Reader.dll"
-r:"C:/Program Files/Unity/Hub/Editor/2021.3.2f1/Editor/Data/NetStandard/compat/2.1.0/shims/netstandard/System.Resources.ResourceManager.dll"
-r:"C:/Program Files/Unity/Hub/Editor/2021.3.2f1/Editor/Data/NetStandard/compat/2.1.0/shims/netstandard/System.Resources.Writer.dll"
-r:"C:/Program Files/Unity/Hub/Editor/2021.3.2f1/Editor/Data/NetStandard/compat/2.1.0/shims/netstandard/System.Runtime.CompilerServices.VisualC.dll"
-r:"C:/Program Files/Unity/Hub/Editor/2021.3.2f1/Editor/Data/NetStandard/compat/2.1.0/shims/netstandard/System.Runtime.dll"
-r:"C:/Program Files/Unity/Hub/Editor/2021.3.2f1/Editor/Data/NetStandard/compat/2.1.0/shims/netstandard/System.Runtime.Extensions.dll"
-r:"C:/Program Files/Unity/Hub/Editor/2021.3.2f1/Editor/Data/NetStandard/compat/2.1.0/shims/netstandard/System.Runtime.Handles.dll"
-r:"C:/Program Files/Unity/Hub/Editor/2021.3.2f1/Editor/Data/NetStandard/compat/2.1.0/shims/netstandard/System.Runtime.InteropServices.dll"
-r:"C:/Program Files/Unity/Hub/Editor/2021.3.2f1/Editor/Data/NetStandard/compat/2.1.0/shims/netstandard/System.Runtime.InteropServices.RuntimeInformation.dll"
-r:"C:/Program Files/Unity/Hub/Editor/2021.3.2f1/Editor/Data/NetStandard/compat/2.1.0/shims/netstandard/System.Runtime.Numerics.dll"
-r:"C:/Program Files/Unity/Hub/Editor/2021.3.2f1/Editor/Data/NetStandard/compat/2.1.0/shims/netstandard/System.Runtime.Serialization.Formatters.dll"
-r:"C:/Program Files/Unity/Hub/Editor/2021.3.2f1/Editor/Data/NetStandard/compat/2.1.0/shims/netstandard/System.Runtime.Serialization.Json.dll"
-r:"C:/Program Files/Unity/Hub/Editor/2021.3.2f1/Editor/Data/NetStandard/compat/2.1.0/shims/netstandard/System.Runtime.Serialization.Primitives.dll"
-r:"C:/Program Files/Unity/Hub/Editor/2021.3.2f1/Editor/Data/NetStandard/compat/2.1.0/shims/netstandard/System.Runtime.Serialization.Xml.dll"
-r:"C:/Program Files/Unity/Hub/Editor/2021.3.2f1/Editor/Data/NetStandard/compat/2.1.0/shims/netstandard/System.Security.Claims.dll"
-r:"C:/Program Files/Unity/Hub/Editor/2021.3.2f1/Editor/Data/NetStandard/compat/2.1.0/shims/netstandard/System.Security.Cryptography.Algorithms.dll"
-r:"C:/Program Files/Unity/Hub/Editor/2021.3.2f1/Editor/Data/NetStandard/compat/2.1.0/shims/netstandard/System.Security.Cryptography.Csp.dll"
-r:"C:/Program Files/Unity/Hub/Editor/2021.3.2f1/Editor/Data/NetStandard/compat/2.1.0/shims/netstandard/System.Security.Cryptography.Encoding.dll"
-r:"C:/Program Files/Unity/Hub/Editor/2021.3.2f1/Editor/Data/NetStandard/compat/2.1.0/shims/netstandard/System.Security.Cryptography.Primitives.dll"
-r:"C:/Program Files/Unity/Hub/Editor/2021.3.2f1/Editor/Data/NetStandard/compat/2.1.0/shims/netstandard/System.Security.Cryptography.X509Certificates.dll"
-r:"C:/Program Files/Unity/Hub/Editor/2021.3.2f1/Editor/Data/NetStandard/compat/2.1.0/shims/netstandard/System.Security.Principal.dll"
-r:"C:/Program Files/Unity/Hub/Editor/2021.3.2f1/Editor/Data/NetStandard/compat/2.1.0/shims/netstandard/System.Security.SecureString.dll"
-r:"C:/Program Files/Unity/Hub/Editor/2021.3.2f1/Editor/Data/NetStandard/compat/2.1.0/shims/netstandard/System.Text.Encoding.dll"
-r:"C:/Program Files/Unity/Hub/Editor/2021.3.2f1/Editor/Data/NetStandard/compat/2.1.0/shims/netstandard/System.Text.Encoding.Extensions.dll"
-r:"C:/Program Files/Unity/Hub/Editor/2021.3.2f1/Editor/Data/NetStandard/compat/2.1.0/shims/netstandard/System.Text.RegularExpressions.dll"
-r:"C:/Program Files/Unity/Hub/Editor/2021.3.2f1/Editor/Data/NetStandard/compat/2.1.0/shims/netstandard/System.Threading.dll"
-r:"C:/Program Files/Unity/Hub/Editor/2021.3.2f1/Editor/Data/NetStandard/compat/2.1.0/shims/netstandard/System.Threading.Overlapped.dll"
-r:"C:/Program Files/Unity/Hub/Editor/2021.3.2f1/Editor/Data/NetStandard/compat/2.1.0/shims/netstandard/System.Threading.Tasks.dll"
-r:"C:/Program Files/Unity/Hub/Editor/2021.3.2f1/Editor/Data/NetStandard/compat/2.1.0/shims/netstandard/System.Threading.Tasks.Extensions.dll"
-r:"C:/Program Files/Unity/Hub/Editor/2021.3.2f1/Editor/Data/NetStandard/compat/2.1.0/shims/netstandard/System.Threading.Tasks.Parallel.dll"
-r:"C:/Program Files/Unity/Hub/Editor/2021.3.2f1/Editor/Data/NetStandard/compat/2.1.0/shims/netstandard/System.Threading.Thread.dll"
-r:"C:/Program Files/Unity/Hub/Editor/2021.3.2f1/Editor/Data/NetStandard/compat/2.1.0/shims/netstandard/System.Threading.ThreadPool.dll"
-r:"C:/Program Files/Unity/Hub/Editor/2021.3.2f1/Editor/Data/NetStandard/compat/2.1.0/shims/netstandard/System.Threading.Timer.dll"
-r:"C:/Program Files/Unity/Hub/Editor/2021.3.2f1/Editor/Data/NetStandard/compat/2.1.0/shims/netstandard/System.ValueTuple.dll"
-r:"C:/Program Files/Unity/Hub/Editor/2021.3.2f1/Editor/Data/NetStandard/compat/2.1.0/shims/netstandard/System.Xml.ReaderWriter.dll"
-r:"C:/Program Files/Unity/Hub/Editor/2021.3.2f1/Editor/Data/NetStandard/compat/2.1.0/shims/netstandard/System.Xml.XDocument.dll"
-r:"C:/Program Files/Unity/Hub/Editor/2021.3.2f1/Editor/Data/NetStandard/compat/2.1.0/shims/netstandard/System.Xml.XmlDocument.dll"
-r:"C:/Program Files/Unity/Hub/Editor/2021.3.2f1/Editor/Data/NetStandard/compat/2.1.0/shims/netstandard/System.Xml.XmlSerializer.dll"
-r:"C:/Program Files/Unity/Hub/Editor/2021.3.2f1/Editor/Data/NetStandard/compat/2.1.0/shims/netstandard/System.Xml.XPath.dll"
-r:"C:/Program Files/Unity/Hub/Editor/2021.3.2f1/Editor/Data/NetStandard/compat/2.1.0/shims/netstandard/System.Xml.XPath.XDocument.dll"
-r:"C:/Program Files/Unity/Hub/Editor/2021.3.2f1/Editor/Data/NetStandard/Extensions/2.0.0/System.Runtime.InteropServices.WindowsRuntime.dll"
-r:"C:/Program Files/Unity/Hub/Editor/2021.3.2f1/Editor/Data/NetStandard/ref/2.1.0/netstandard.dll"
-r:"C:/Program Files/Unity/Hub/Editor/2021.3.2f1/Editor/Data/PlaybackEngines/WindowsStandaloneSupport/Variations/mono/Managed/UnityEngine.AccessibilityModule.dll"
-r:"C:/Program Files/Unity/Hub/Editor/2021.3.2f1/Editor/Data/PlaybackEngines/WindowsStandaloneSupport/Variations/mono/Managed/UnityEngine.AIModule.dll"
-r:"C:/Program Files/Unity/Hub/Editor/2021.3.2f1/Editor/Data/PlaybackEngines/WindowsStandaloneSupport/Variations/mono/Managed/UnityEngine.AndroidJNIModule.dll"
-r:"C:/Program Files/Unity/Hub/Editor/2021.3.2f1/Editor/Data/PlaybackEngines/WindowsStandaloneSupport/Variations/mono/Managed/UnityEngine.AnimationModule.dll"
-r:"C:/Program Files/Unity/Hub/Editor/2021.3.2f1/Editor/Data/PlaybackEngines/WindowsStandaloneSupport/Variations/mono/Managed/UnityEngine.ARModule.dll"
-r:"C:/Program Files/Unity/Hub/Editor/2021.3.2f1/Editor/Data/PlaybackEngines/WindowsStandaloneSupport/Variations/mono/Managed/UnityEngine.AssetBundleModule.dll"
-r:"C:/Program Files/Unity/Hub/Editor/2021.3.2f1/Editor/Data/PlaybackEngines/WindowsStandaloneSupport/Variations/mono/Managed/UnityEngine.AudioModule.dll"
-r:"C:/Program Files/Unity/Hub/Editor/2021.3.2f1/Editor/Data/PlaybackEngines/WindowsStandaloneSupport/Variations/mono/Managed/UnityEngine.ClothModule.dll"
-r:"C:/Program Files/Unity/Hub/Editor/2021.3.2f1/Editor/Data/PlaybackEngines/WindowsStandaloneSupport/Variations/mono/Managed/UnityEngine.ClusterInputModule.dll"
-r:"C:/Program Files/Unity/Hub/Editor/2021.3.2f1/Editor/Data/PlaybackEngines/WindowsStandaloneSupport/Variations/mono/Managed/UnityEngine.ClusterRendererModule.dll"
-r:"C:/Program Files/Unity/Hub/Editor/2021.3.2f1/Editor/Data/PlaybackEngines/WindowsStandaloneSupport/Variations/mono/Managed/UnityEngine.CoreModule.dll"
-r:"C:/Program Files/Unity/Hub/Editor/2021.3.2f1/Editor/Data/PlaybackEngines/WindowsStandaloneSupport/Variations/mono/Managed/UnityEngine.CrashReportingModule.dll"
-r:"C:/Program Files/Unity/Hub/Editor/2021.3.2f1/Editor/Data/PlaybackEngines/WindowsStandaloneSupport/Variations/mono/Managed/UnityEngine.DirectorModule.dll"
-r:"C:/Program Files/Unity/Hub/Editor/2021.3.2f1/Editor/Data/PlaybackEngines/WindowsStandaloneSupport/Variations/mono/Managed/UnityEngine.dll"
-r:"C:/Program Files/Unity/Hub/Editor/2021.3.2f1/Editor/Data/PlaybackEngines/WindowsStandaloneSupport/Variations/mono/Managed/UnityEngine.DSPGraphModule.dll"
-r:"C:/Program Files/Unity/Hub/Editor/2021.3.2f1/Editor/Data/PlaybackEngines/WindowsStandaloneSupport/Variations/mono/Managed/UnityEngine.GameCenterModule.dll"
-r:"C:/Program Files/Unity/Hub/Editor/2021.3.2f1/Editor/Data/PlaybackEngines/WindowsStandaloneSupport/Variations/mono/Managed/UnityEngine.GIModule.dll"
-r:"C:/Program Files/Unity/Hub/Editor/2021.3.2f1/Editor/Data/PlaybackEngines/WindowsStandaloneSupport/Variations/mono/Managed/UnityEngine.GridModule.dll"
-r:"C:/Program Files/Unity/Hub/Editor/2021.3.2f1/Editor/Data/PlaybackEngines/WindowsStandaloneSupport/Variations/mono/Managed/UnityEngine.HotReloadModule.dll"
-r:"C:/Program Files/Unity/Hub/Editor/2021.3.2f1/Editor/Data/PlaybackEngines/WindowsStandaloneSupport/Variations/mono/Managed/UnityEngine.ImageConversionModule.dll"
-r:"C:/Program Files/Unity/Hub/Editor/2021.3.2f1/Editor/Data/PlaybackEngines/WindowsStandaloneSupport/Variations/mono/Managed/UnityEngine.IMGUIModule.dll"
-r:"C:/Program Files/Unity/Hub/Editor/2021.3.2f1/Editor/Data/PlaybackEngines/WindowsStandaloneSupport/Variations/mono/Managed/UnityEngine.InputLegacyModule.dll"
-r:"C:/Program Files/Unity/Hub/Editor/2021.3.2f1/Editor/Data/PlaybackEngines/WindowsStandaloneSupport/Variations/mono/Managed/UnityEngine.InputModule.dll"
-r:"C:/Program Files/Unity/Hub/Editor/2021.3.2f1/Editor/Data/PlaybackEngines/WindowsStandaloneSupport/Variations/mono/Managed/UnityEngine.JSONSerializeModule.dll"
-r:"C:/Program Files/Unity/Hub/Editor/2021.3.2f1/Editor/Data/PlaybackEngines/WindowsStandaloneSupport/Variations/mono/Managed/UnityEngine.LocalizationModule.dll"
-r:"C:/Program Files/Unity/Hub/Editor/2021.3.2f1/Editor/Data/PlaybackEngines/WindowsStandaloneSupport/Variations/mono/Managed/UnityEngine.ParticleSystemModule.dll"
-r:"C:/Program Files/Unity/Hub/Editor/2021.3.2f1/Editor/Data/PlaybackEngines/WindowsStandaloneSupport/Variations/mono/Managed/UnityEngine.PerformanceReportingModule.dll"
-r:"C:/Program Files/Unity/Hub/Editor/2021.3.2f1/Editor/Data/PlaybackEngines/WindowsStandaloneSupport/Variations/mono/Managed/UnityEngine.Physics2DModule.dll"
-r:"C:/Program Files/Unity/Hub/Editor/2021.3.2f1/Editor/Data/PlaybackEngines/WindowsStandaloneSupport/Variations/mono/Managed/UnityEngine.PhysicsModule.dll"
-r:"C:/Program Files/Unity/Hub/Editor/2021.3.2f1/Editor/Data/PlaybackEngines/WindowsStandaloneSupport/Variations/mono/Managed/UnityEngine.ProfilerModule.dll"
-r:"C:/Program Files/Unity/Hub/Editor/2021.3.2f1/Editor/Data/PlaybackEngines/WindowsStandaloneSupport/Variations/mono/Managed/UnityEngine.RuntimeInitializeOnLoadManagerInitializerModule.dll"
-r:"C:/Program Files/Unity/Hub/Editor/2021.3.2f1/Editor/Data/PlaybackEngines/WindowsStandaloneSupport/Variations/mono/Managed/UnityEngine.ScreenCaptureModule.dll"
-r:"C:/Program Files/Unity/Hub/Editor/2021.3.2f1/Editor/Data/PlaybackEngines/WindowsStandaloneSupport/Variations/mono/Managed/UnityEngine.SharedInternalsModule.dll"
-r:"C:/Program Files/Unity/Hub/Editor/2021.3.2f1/Editor/Data/PlaybackEngines/WindowsStandaloneSupport/Variations/mono/Managed/UnityEngine.SpriteMaskModule.dll"
-r:"C:/Program Files/Unity/Hub/Editor/2021.3.2f1/Editor/Data/PlaybackEngines/WindowsStandaloneSupport/Variations/mono/Managed/UnityEngine.SpriteShapeModule.dll"
-r:"C:/Program Files/Unity/Hub/Editor/2021.3.2f1/Editor/Data/PlaybackEngines/WindowsStandaloneSupport/Variations/mono/Managed/UnityEngine.StreamingModule.dll"
-r:"C:/Program Files/Unity/Hub/Editor/2021.3.2f1/Editor/Data/PlaybackEngines/WindowsStandaloneSupport/Variations/mono/Managed/UnityEngine.SubstanceModule.dll"
-r:"C:/Program Files/Unity/Hub/Editor/2021.3.2f1/Editor/Data/PlaybackEngines/WindowsStandaloneSupport/Variations/mono/Managed/UnityEngine.SubsystemsModule.dll"
-r:"C:/Program Files/Unity/Hub/Editor/2021.3.2f1/Editor/Data/PlaybackEngines/WindowsStandaloneSupport/Variations/mono/Managed/UnityEngine.TerrainModule.dll"
-r:"C:/Program Files/Unity/Hub/Editor/2021.3.2f1/Editor/Data/PlaybackEngines/WindowsStandaloneSupport/Variations/mono/Managed/UnityEngine.TerrainPhysicsModule.dll"
-r:"C:/Program Files/Unity/Hub/Editor/2021.3.2f1/Editor/Data/PlaybackEngines/WindowsStandaloneSupport/Variations/mono/Managed/UnityEngine.TextCoreFontEngineModule.dll"
-r:"C:/Program Files/Unity/Hub/Editor/2021.3.2f1/Editor/Data/PlaybackEngines/WindowsStandaloneSupport/Variations/mono/Managed/UnityEngine.TextCoreTextEngineModule.dll"
-r:"C:/Program Files/Unity/Hub/Editor/2021.3.2f1/Editor/Data/PlaybackEngines/WindowsStandaloneSupport/Variations/mono/Managed/UnityEngine.TextRenderingModule.dll"
-r:"C:/Program Files/Unity/Hub/Editor/2021.3.2f1/Editor/Data/PlaybackEngines/WindowsStandaloneSupport/Variations/mono/Managed/UnityEngine.TilemapModule.dll"
-r:"C:/Program Files/Unity/Hub/Editor/2021.3.2f1/Editor/Data/PlaybackEngines/WindowsStandaloneSupport/Variations/mono/Managed/UnityEngine.TLSModule.dll"
-r:"C:/Program Files/Unity/Hub/Editor/2021.3.2f1/Editor/Data/PlaybackEngines/WindowsStandaloneSupport/Variations/mono/Managed/UnityEngine.UIElementsModule.dll"
-r:"C:/Program Files/Unity/Hub/Editor/2021.3.2f1/Editor/Data/PlaybackEngines/WindowsStandaloneSupport/Variations/mono/Managed/UnityEngine.UIElementsNativeModule.dll"
-r:"C:/Program Files/Unity/Hub/Editor/2021.3.2f1/Editor/Data/PlaybackEngines/WindowsStandaloneSupport/Variations/mono/Managed/UnityEngine.UIModule.dll"
-r:"C:/Program Files/Unity/Hub/Editor/2021.3.2f1/Editor/Data/PlaybackEngines/WindowsStandaloneSupport/Variations/mono/Managed/UnityEngine.UmbraModule.dll"
-r:"C:/Program Files/Unity/Hub/Editor/2021.3.2f1/Editor/Data/PlaybackEngines/WindowsStandaloneSupport/Variations/mono/Managed/UnityEngine.UNETModule.dll"
-r:"C:/Program Files/Unity/Hub/Editor/2021.3.2f1/Editor/Data/PlaybackEngines/WindowsStandaloneSupport/Variations/mono/Managed/UnityEngine.UnityAnalyticsModule.dll"
-r:"C:/Program Files/Unity/Hub/Editor/2021.3.2f1/Editor/Data/PlaybackEngines/WindowsStandaloneSupport/Variations/mono/Managed/UnityEngine.UnityConnectModule.dll"
-r:"C:/Program Files/Unity/Hub/Editor/2021.3.2f1/Editor/Data/PlaybackEngines/WindowsStandaloneSupport/Variations/mono/Managed/UnityEngine.UnityCurlModule.dll"
-r:"C:/Program Files/Unity/Hub/Editor/2021.3.2f1/Editor/Data/PlaybackEngines/WindowsStandaloneSupport/Variations/mono/Managed/UnityEngine.UnityTestProtocolModule.dll"
-r:"C:/Program Files/Unity/Hub/Editor/2021.3.2f1/Editor/Data/PlaybackEngines/WindowsStandaloneSupport/Variations/mono/Managed/UnityEngine.UnityWebRequestAssetBundleModule.dll"
-r:"C:/Program Files/Unity/Hub/Editor/2021.3.2f1/Editor/Data/PlaybackEngines/WindowsStandaloneSupport/Variations/mono/Managed/UnityEngine.UnityWebRequestAudioModule.dll"
-r:"C:/Program Files/Unity/Hub/Editor/2021.3.2f1/Editor/Data/PlaybackEngines/WindowsStandaloneSupport/Variations/mono/Managed/UnityEngine.UnityWebRequestModule.dll"
-r:"C:/Program Files/Unity/Hub/Editor/2021.3.2f1/Editor/Data/PlaybackEngines/WindowsStandaloneSupport/Variations/mono/Managed/UnityEngine.UnityWebRequestTextureModule.dll"
-r:"C:/Program Files/Unity/Hub/Editor/2021.3.2f1/Editor/Data/PlaybackEngines/WindowsStandaloneSupport/Variations/mono/Managed/UnityEngine.UnityWebRequestWWWModule.dll"
-r:"C:/Program Files/Unity/Hub/Editor/2021.3.2f1/Editor/Data/PlaybackEngines/WindowsStandaloneSupport/Variations/mono/Managed/UnityEngine.VehiclesModule.dll"
-r:"C:/Program Files/Unity/Hub/Editor/2021.3.2f1/Editor/Data/PlaybackEngines/WindowsStandaloneSupport/Variations/mono/Managed/UnityEngine.VFXModule.dll"
-r:"C:/Program Files/Unity/Hub/Editor/2021.3.2f1/Editor/Data/PlaybackEngines/WindowsStandaloneSupport/Variations/mono/Managed/UnityEngine.VideoModule.dll"
-r:"C:/Program Files/Unity/Hub/Editor/2021.3.2f1/Editor/Data/PlaybackEngines/WindowsStandaloneSupport/Variations/mono/Managed/UnityEngine.VirtualTexturingModule.dll"
-r:"C:/Program Files/Unity/Hub/Editor/2021.3.2f1/Editor/Data/PlaybackEngines/WindowsStandaloneSupport/Variations/mono/Managed/UnityEngine.VRModule.dll"
-r:"C:/Program Files/Unity/Hub/Editor/2021.3.2f1/Editor/Data/PlaybackEngines/WindowsStandaloneSupport/Variations/mono/Managed/UnityEngine.WindModule.dll"
-r:"C:/Program Files/Unity/Hub/Editor/2021.3.2f1/Editor/Data/PlaybackEngines/WindowsStandaloneSupport/Variations/mono/Managed/UnityEngine.XRModule.dll"
-r:"C:/Users/clccm/Unity/PSWJam/Library/PackageCache/com.unity.burst@1.6.5/Unity.Burst.CodeGen/Unity.Burst.Cecil.dll"
-r:"C:/Users/clccm/Unity/PSWJam/Library/PackageCache/com.unity.burst@1.6.5/Unity.Burst.CodeGen/Unity.Burst.Cecil.Mdb.dll"
-r:"C:/Users/clccm/Unity/PSWJam/Library/PackageCache/com.unity.burst@1.6.5/Unity.Burst.CodeGen/Unity.Burst.Cecil.Pdb.dll"
-r:"C:/Users/clccm/Unity/PSWJam/Library/PackageCache/com.unity.burst@1.6.5/Unity.Burst.CodeGen/Unity.Burst.Cecil.Rocks.dll"
-r:"C:/Users/clccm/Unity/PSWJam/Library/PackageCache/com.unity.burst@1.6.5/Unity.Burst.Unsafe.dll"
-r:"C:/Users/clccm/Unity/PSWJam/Library/PackageCache/com.unity.nuget.newtonsoft-json@3.0.2/Runtime/AOT/Newtonsoft.Json.dll"
-r:"C:/Users/clccm/Unity/PSWJam/Library/PackageCache/com.unity.visualscripting@1.7.6/Runtime/VisualScripting.Flow/Dependencies/NCalc/Unity.VisualScripting.Antlr3.Runtime.dll"
-r:"Library/Bee/artifacts/1900b0aP.dag/Unity.InputSystem.ref.dll"
-r:"Library/Bee/artifacts/1900b0aP.dag/UnityEngine.UI.ref.dll"
"Library/PackageCache/com.unity.render-pipelines.core@12.1.6/Runtime/AssemblyInfo.cs"
"Library/PackageCache/com.unity.render-pipelines.core@12.1.6/Runtime/Camera/CameraSwitcher.cs"
"Library/PackageCache/com.unity.render-pipelines.core@12.1.6/Runtime/Camera/FreeCamera.cs"
"Library/PackageCache/com.unity.render-pipelines.core@12.1.6/Runtime/Common/CommandBufferPool.cs"
"Library/PackageCache/com.unity.render-pipelines.core@12.1.6/Runtime/Common/CommonStructs.cs"
"Library/PackageCache/com.unity.render-pipelines.core@12.1.6/Runtime/Common/ComponentSingleton.cs"
"Library/PackageCache/com.unity.render-pipelines.core@12.1.6/Runtime/Common/ConstantBuffer.cs"
"Library/PackageCache/com.unity.render-pipelines.core@12.1.6/Runtime/Common/CoreAttributes.cs"
"Library/PackageCache/com.unity.render-pipelines.core@12.1.6/Runtime/Common/CoreProfileId.cs"
"Library/PackageCache/com.unity.render-pipelines.core@12.1.6/Runtime/Common/CoreUnsafeUtils.cs"
"Library/PackageCache/com.unity.render-pipelines.core@12.1.6/Runtime/Common/DynamicArray.cs"
"Library/PackageCache/com.unity.render-pipelines.core@12.1.6/Runtime/Common/DynamicResolutionHandler.cs"
"Library/PackageCache/com.unity.render-pipelines.core@12.1.6/Runtime/Common/GlobalDynamicResolutionSettings.cs"
"Library/PackageCache/com.unity.render-pipelines.core@12.1.6/Runtime/Common/IAdditionalData.cs"
"Library/PackageCache/com.unity.render-pipelines.core@12.1.6/Runtime/Common/IVirtualTexturingEnabledRenderPipeline.cs"
"Library/PackageCache/com.unity.render-pipelines.core@12.1.6/Runtime/Common/ListBuffer.cs"
"Library/PackageCache/com.unity.render-pipelines.core@12.1.6/Runtime/Common/ObjectPools.cs"
"Library/PackageCache/com.unity.render-pipelines.core@12.1.6/Runtime/Common/ObservableList.cs"
"Library/PackageCache/com.unity.render-pipelines.core@12.1.6/Runtime/Common/SerializableEnum.cs"
"Library/PackageCache/com.unity.render-pipelines.core@12.1.6/Runtime/Common/SerializedDictionary.cs"
"Library/PackageCache/com.unity.render-pipelines.core@12.1.6/Runtime/Common/XRGraphics.cs"
"Library/PackageCache/com.unity.render-pipelines.core@12.1.6/Runtime/Debugging/DebugManager.Actions.cs"
"Library/PackageCache/com.unity.render-pipelines.core@12.1.6/Runtime/Debugging/DebugManager.cs"
"Library/PackageCache/com.unity.render-pipelines.core@12.1.6/Runtime/Debugging/DebugShapes.cs"
"Library/PackageCache/com.unity.render-pipelines.core@12.1.6/Runtime/Debugging/DebugUI.Containers.cs"
"Library/PackageCache/com.unity.render-pipelines.core@12.1.6/Runtime/Debugging/DebugUI.cs"
"Library/PackageCache/com.unity.render-pipelines.core@12.1.6/Runtime/Debugging/DebugUI.Fields.cs"
"Library/PackageCache/com.unity.render-pipelines.core@12.1.6/Runtime/Debugging/DebugUI.Panel.cs"
"Library/PackageCache/com.unity.render-pipelines.core@12.1.6/Runtime/Debugging/DebugUpdater.cs"
"Library/PackageCache/com.unity.render-pipelines.core@12.1.6/Runtime/Debugging/MousePositionDebug.cs"
"Library/PackageCache/com.unity.render-pipelines.core@12.1.6/Runtime/Debugging/Prefabs/Scripts/DebugUIHandlerBitField.cs"
"Library/PackageCache/com.unity.render-pipelines.core@12.1.6/Runtime/Debugging/Prefabs/Scripts/DebugUIHandlerButton.cs"
"Library/PackageCache/com.unity.render-pipelines.core@12.1.6/Runtime/Debugging/Prefabs/Scripts/DebugUIHandlerCanvas.cs"
"Library/PackageCache/com.unity.render-pipelines.core@12.1.6/Runtime/Debugging/Prefabs/Scripts/DebugUIHandlerColor.cs"
"Library/PackageCache/com.unity.render-pipelines.core@12.1.6/Runtime/Debugging/Prefabs/Scripts/DebugUIHandlerContainer.cs"
"Library/PackageCache/com.unity.render-pipelines.core@12.1.6/Runtime/Debugging/Prefabs/Scripts/DebugUIHandlerEnumField.cs"
"Library/PackageCache/com.unity.render-pipelines.core@12.1.6/Runtime/Debugging/Prefabs/Scripts/DebugUIHandlerEnumHistory.cs"
"Library/PackageCache/com.unity.render-pipelines.core@12.1.6/Runtime/Debugging/Prefabs/Scripts/DebugUIHandlerFloatField.cs"
"Library/PackageCache/com.unity.render-pipelines.core@12.1.6/Runtime/Debugging/Prefabs/Scripts/DebugUIHandlerFoldout.cs"
"Library/PackageCache/com.unity.render-pipelines.core@12.1.6/Runtime/Debugging/Prefabs/Scripts/DebugUIHandlerGroup.cs"
"Library/PackageCache/com.unity.render-pipelines.core@12.1.6/Runtime/Debugging/Prefabs/Scripts/DebugUIHandlerHBox.cs"
"Library/PackageCache/com.unity.render-pipelines.core@12.1.6/Runtime/Debugging/Prefabs/Scripts/DebugUIHandlerIndirectFloatField.cs"
"Library/PackageCache/com.unity.render-pipelines.core@12.1.6/Runtime/Debugging/Prefabs/Scripts/DebugUIHandlerIndirectToggle.cs"
"Library/PackageCache/com.unity.render-pipelines.core@12.1.6/Runtime/Debugging/Prefabs/Scripts/DebugUIHandlerIntField.cs"
"Library/PackageCache/com.unity.render-pipelines.core@12.1.6/Runtime/Debugging/Prefabs/Scripts/DebugUIHandlerMessageBox.cs"
"Library/PackageCache/com.unity.render-pipelines.core@12.1.6/Runtime/Debugging/Prefabs/Scripts/DebugUIHandlerPanel.cs"
"Library/PackageCache/com.unity.render-pipelines.core@12.1.6/Runtime/Debugging/Prefabs/Scripts/DebugUIHandlerPersistentCanvas.cs"
"Library/PackageCache/com.unity.render-pipelines.core@12.1.6/Runtime/Debugging/Prefabs/Scripts/DebugUIHandlerRow.cs"
"Library/PackageCache/com.unity.render-pipelines.core@12.1.6/Runtime/Debugging/Prefabs/Scripts/DebugUIHandlerToggle.cs"
"Library/PackageCache/com.unity.render-pipelines.core@12.1.6/Runtime/Debugging/Prefabs/Scripts/DebugUIHandlerToggleHistory.cs"
"Library/PackageCache/com.unity.render-pipelines.core@12.1.6/Runtime/Debugging/Prefabs/Scripts/DebugUIHandlerUIntField.cs"
"Library/PackageCache/com.unity.render-pipelines.core@12.1.6/Runtime/Debugging/Prefabs/Scripts/DebugUIHandlerValue.cs"
"Library/PackageCache/com.unity.render-pipelines.core@12.1.6/Runtime/Debugging/Prefabs/Scripts/DebugUIHandlerVBox.cs"
"Library/PackageCache/com.unity.render-pipelines.core@12.1.6/Runtime/Debugging/Prefabs/Scripts/DebugUIHandlerVector2.cs"
"Library/PackageCache/com.unity.render-pipelines.core@12.1.6/Runtime/Debugging/Prefabs/Scripts/DebugUIHandlerVector3.cs"
"Library/PackageCache/com.unity.render-pipelines.core@12.1.6/Runtime/Debugging/Prefabs/Scripts/DebugUIHandlerVector4.cs"
"Library/PackageCache/com.unity.render-pipelines.core@12.1.6/Runtime/Debugging/Prefabs/Scripts/DebugUIHandlerWidget.cs"
"Library/PackageCache/com.unity.render-pipelines.core@12.1.6/Runtime/Debugging/Prefabs/Scripts/UIFoldout.cs"
"Library/PackageCache/com.unity.render-pipelines.core@12.1.6/Runtime/Debugging/ProfilingScope.cs"
"Library/PackageCache/com.unity.render-pipelines.core@12.1.6/Runtime/Documentation.cs"
"Library/PackageCache/com.unity.render-pipelines.core@12.1.6/Runtime/Inputs/InputRegistering.cs"
"Library/PackageCache/com.unity.render-pipelines.core@12.1.6/Runtime/Lighting/ProbeVolume/ProbeBrickIndex.cs"
"Library/PackageCache/com.unity.render-pipelines.core@12.1.6/Runtime/Lighting/ProbeVolume/ProbeBrickPool.cs"
"Library/PackageCache/com.unity.render-pipelines.core@12.1.6/Runtime/Lighting/ProbeVolume/ProbeIndexOfIndices.cs"
"Library/PackageCache/com.unity.render-pipelines.core@12.1.6/Runtime/Lighting/ProbeVolume/ProbeReferenceVolume.cs"
"Library/PackageCache/com.unity.render-pipelines.core@12.1.6/Runtime/Lighting/ProbeVolume/ProbeReferenceVolume.Debug.cs"
"Library/PackageCache/com.unity.render-pipelines.core@12.1.6/Runtime/Lighting/ProbeVolume/ProbeReferenceVolumeProfile.cs"
"Library/PackageCache/com.unity.render-pipelines.core@12.1.6/Runtime/Lighting/ProbeVolume/ProbeVolume.cs"
"Library/PackageCache/com.unity.render-pipelines.core@12.1.6/Runtime/Lighting/ProbeVolume/ProbeVolumeAsset.cs"
"Library/PackageCache/com.unity.render-pipelines.core@12.1.6/Runtime/Lighting/ProbeVolume/ProbeVolumeBakingProcessSettings.cs"
"Library/PackageCache/com.unity.render-pipelines.core@12.1.6/Runtime/Lighting/ProbeVolume/ProbeVolumePerSceneData.cs"
"Library/PackageCache/com.unity.render-pipelines.core@12.1.6/Runtime/Lighting/ProbeVolume/ProbeVolumePositioning.cs"
"Library/PackageCache/com.unity.render-pipelines.core@12.1.6/Runtime/Lighting/ProbeVolume/ProbeVolumeSceneData.cs"
"Library/PackageCache/com.unity.render-pipelines.core@12.1.6/Runtime/Lighting/ProbeVolume/ShaderVariablesProbeVolumes.cs"
"Library/PackageCache/com.unity.render-pipelines.core@12.1.6/Runtime/Lighting/SphericalHarmonics.cs"
"Library/PackageCache/com.unity.render-pipelines.core@12.1.6/Runtime/Lights/LightAnchor.cs"
"Library/PackageCache/com.unity.render-pipelines.core@12.1.6/Runtime/LookDev/IDataProvider.cs"
"Library/PackageCache/com.unity.render-pipelines.core@12.1.6/Runtime/PostProcessing/LensFlareCommonSRP.cs"
"Library/PackageCache/com.unity.render-pipelines.core@12.1.6/Runtime/PostProcessing/LensFlareComponentSRP.cs"
"Library/PackageCache/com.unity.render-pipelines.core@12.1.6/Runtime/PostProcessing/LensFlareDataSRP.cs"
"Library/PackageCache/com.unity.render-pipelines.core@12.1.6/Runtime/RendererList/RendererList.cs"
"Library/PackageCache/com.unity.render-pipelines.core@12.1.6/Runtime/RenderGraph/RenderGraph.cs"
"Library/PackageCache/com.unity.render-pipelines.core@12.1.6/Runtime/RenderGraph/RenderGraphBuilder.cs"
"Library/PackageCache/com.unity.render-pipelines.core@12.1.6/Runtime/RenderGraph/RenderGraphDefaultResources.cs"
"Library/PackageCache/com.unity.render-pipelines.core@12.1.6/Runtime/RenderGraph/RenderGraphLogger.cs"
"Library/PackageCache/com.unity.render-pipelines.core@12.1.6/Runtime/RenderGraph/RenderGraphObjectPool.cs"
"Library/PackageCache/com.unity.render-pipelines.core@12.1.6/Runtime/RenderGraph/RenderGraphPass.cs"
"Library/PackageCache/com.unity.render-pipelines.core@12.1.6/Runtime/RenderGraph/RenderGraphProfileId.cs"
"Library/PackageCache/com.unity.render-pipelines.core@12.1.6/Runtime/RenderGraph/RenderGraphResourceComputeBuffer.cs"
"Library/PackageCache/com.unity.render-pipelines.core@12.1.6/Runtime/RenderGraph/RenderGraphResourcePool.cs"
"Library/PackageCache/com.unity.render-pipelines.core@12.1.6/Runtime/RenderGraph/RenderGraphResourceRegistry.cs"
"Library/PackageCache/com.unity.render-pipelines.core@12.1.6/Runtime/RenderGraph/RenderGraphResourceRendererList.cs"
"Library/PackageCache/com.unity.render-pipelines.core@12.1.6/Runtime/RenderGraph/RenderGraphResources.cs"
"Library/PackageCache/com.unity.render-pipelines.core@12.1.6/Runtime/RenderGraph/RenderGraphResourceTexture.cs"
"Library/PackageCache/com.unity.render-pipelines.core@12.1.6/Runtime/RenderPipeline/RenderPipelineResources.cs"
"Library/PackageCache/com.unity.render-pipelines.core@12.1.6/Runtime/ShaderGenerator/ShaderGeneratorAttributes.cs"
"Library/PackageCache/com.unity.render-pipelines.core@12.1.6/Runtime/Textures/BufferedRTHandleSystem.cs"
"Library/PackageCache/com.unity.render-pipelines.core@12.1.6/Runtime/Textures/DepthBits.cs"
"Library/PackageCache/com.unity.render-pipelines.core@12.1.6/Runtime/Textures/MSAASamples.cs"
"Library/PackageCache/com.unity.render-pipelines.core@12.1.6/Runtime/Textures/PowerOfTwoTextureAtlas.cs"
"Library/PackageCache/com.unity.render-pipelines.core@12.1.6/Runtime/Textures/RTHandle.cs"
"Library/PackageCache/com.unity.render-pipelines.core@12.1.6/Runtime/Textures/RTHandles.cs"
"Library/PackageCache/com.unity.render-pipelines.core@12.1.6/Runtime/Textures/RTHandleSystem.cs"
"Library/PackageCache/com.unity.render-pipelines.core@12.1.6/Runtime/Textures/Texture2DAtlas.cs"
"Library/PackageCache/com.unity.render-pipelines.core@12.1.6/Runtime/Textures/Texture2DAtlasDynamic.cs"
"Library/PackageCache/com.unity.render-pipelines.core@12.1.6/Runtime/Textures/TextureXR.cs"
"Library/PackageCache/com.unity.render-pipelines.core@12.1.6/Runtime/Utilities/ArrayExtensions.cs"
"Library/PackageCache/com.unity.render-pipelines.core@12.1.6/Runtime/Utilities/BitArray.cs"
"Library/PackageCache/com.unity.render-pipelines.core@12.1.6/Runtime/Utilities/Blitter.cs"
"Library/PackageCache/com.unity.render-pipelines.core@12.1.6/Runtime/Utilities/CameraCaptureBridge.cs"
"Library/PackageCache/com.unity.render-pipelines.core@12.1.6/Runtime/Utilities/ColorUtils.cs"
"Library/PackageCache/com.unity.render-pipelines.core@12.1.6/Runtime/Utilities/CoreMatrixUtils.cs"
"Library/PackageCache/com.unity.render-pipelines.core@12.1.6/Runtime/Utilities/CoreRenderPipelinePreferences.cs"
"Library/PackageCache/com.unity.render-pipelines.core@12.1.6/Runtime/Utilities/CoreUtils.cs"
"Library/PackageCache/com.unity.render-pipelines.core@12.1.6/Runtime/Utilities/DelegateUtility.cs"
"Library/PackageCache/com.unity.render-pipelines.core@12.1.6/Runtime/Utilities/FSRUtils.cs"
"Library/PackageCache/com.unity.render-pipelines.core@12.1.6/Runtime/Utilities/HableCurve.cs"
"Library/PackageCache/com.unity.render-pipelines.core@12.1.6/Runtime/Utilities/HaltonSequence.cs"
"Library/PackageCache/com.unity.render-pipelines.core@12.1.6/Runtime/Utilities/MaterialQuality.cs"
"Library/PackageCache/com.unity.render-pipelines.core@12.1.6/Runtime/Utilities/MeshGizmo.cs"
"Library/PackageCache/com.unity.render-pipelines.core@12.1.6/Runtime/Utilities/ResourceReloader.cs"
"Library/PackageCache/com.unity.render-pipelines.core@12.1.6/Runtime/Utilities/SceneRenderPipeline.cs"
"Library/PackageCache/com.unity.render-pipelines.core@12.1.6/Runtime/Utilities/TextureCurve.cs"
"Library/PackageCache/com.unity.render-pipelines.core@12.1.6/Runtime/Utilities/TileLayoutUtils.cs"
"Library/PackageCache/com.unity.render-pipelines.core@12.1.6/Runtime/Utilities/XRUtils.cs"
"Library/PackageCache/com.unity.render-pipelines.core@12.1.6/Runtime/Volume/IVolume.cs"
"Library/PackageCache/com.unity.render-pipelines.core@12.1.6/Runtime/Volume/Volume.cs"
"Library/PackageCache/com.unity.render-pipelines.core@12.1.6/Runtime/Volume/VolumeComponent.cs"
"Library/PackageCache/com.unity.render-pipelines.core@12.1.6/Runtime/Volume/VolumeManager.cs"
"Library/PackageCache/com.unity.render-pipelines.core@12.1.6/Runtime/Volume/VolumeParameter.cs"
"Library/PackageCache/com.unity.render-pipelines.core@12.1.6/Runtime/Volume/VolumeProfile.cs"
"Library/PackageCache/com.unity.render-pipelines.core@12.1.6/Runtime/Volume/VolumeStack.cs"
"Library/PackageCache/com.unity.render-pipelines.core@12.1.6/Runtime/XR/XRGraphicsAutomatedTests.cs"
-langversion:9.0
/unsafe+
/deterministic
/optimize+
/debug:portable
/nologo
/RuntimeMetadataVersion:v4.0.30319

/nowarn:0169
/nowarn:0649
/nowarn:1701
/nowarn:1702
/utf8output
/preferreduilang:en-US
-warn:0